iverilog/zlc4.vcd
$date
	Thu Jun 18 20:10:11 2026
$end
$version
	Icarus Verilog
$end
$timescale
	1ps
$end
$scope module zlc4_tb $end
$var wire 1 ! V $end
$var wire 2 " P [1:0] $end
$var reg 4 # A [3:0] $end
$var reg 3 $ expected_lz [2:0] $end
$var reg 1 % expected_v $end
$var integer 32 & errors [31:0] $end
$var integer 32 ' i [31:0] $end
$scope function lzc4 $end
$var reg 1 ( found $end
$var reg 4 ) value [3:0] $end
$var integer 32 * j [31:0] $end
$upscope $end
$scope module x1 $end
$var wire 1 + A0 $end
$var wire 1 , A1 $end
$var wire 1 - A2 $end
$var wire 1 . A3 $end
$var wire 1 / GND $end
$var wire 1 0 VDD $end
$var wire 1 1 net4 $end
$var wire 1 2 net3 $end
$var wire 1 3 net2 $end
$var wire 1 4 net1 $end
$var wire 1 ! V $end
$var wire 1 5 P1 $end
$var wire 1 6 P0 $end
$scope module x1 $end
$var wire 1 / GND $end
$var wire 1 . HI $end
$var wire 1 - LO $end
$var wire 1 0 VDD $end
$var wire 1 4 V $end
$var wire 1 2 P $end
$scope module x1 $end
$var wire 1 . A $end
$var wire 1 - B $end
$var wire 1 7 VGND $end
$var wire 1 8 VNB $end
$var wire 1 9 VPB $end
$var wire 1 : VPWR $end
$var wire 1 4 X $end
$var wire 1 ; or0_out_X $end
$upscope $end
$scope module x2 $end
$var wire 1 . A $end
$var wire 1 < VGND $end
$var wire 1 = VNB $end
$var wire 1 > VPB $end
$var wire 1 ? VPWR $end
$var wire 1 2 Y $end
$var wire 1 @ not0_out_Y $end
$upscope $end
$upscope $end
$scope module x2 $end
$var wire 1 / GND $end
$var wire 1 , HI $end
$var wire 1 + LO $end
$var wire 1 0 VDD $end
$var wire 1 3 V $end
$var wire 1 1 P $end
$scope module x1 $end
$var wire 1 , A $end
$var wire 1 + B $end
$var wire 1 A VGND $end
$var wire 1 B VNB $end
$var wire 1 C VPB $end
$var wire 1 D VPWR $end
$var wire 1 3 X $end
$var wire 1 E or0_out_X $end
$upscope $end
$scope module x2 $end
$var wire 1 , A $end
$var wire 1 F VGND $end
$var wire 1 G VNB $end
$var wire 1 H VPB $end
$var wire 1 I VPWR $end
$var wire 1 1 Y $end
$var wire 1 J not0_out_Y $end
$upscope $end
$upscope $end
$scope module x3 $end
$var wire 1 4 A $end
$var wire 1 3 B $end
$var wire 1 K VGND $end
$var wire 1 L VNB $end
$var wire 1 M VPB $end
$var wire 1 N VPWR $end
$var wire 1 ! X $end
$var wire 1 O or0_out_X $end
$upscope $end
$scope module x4 $end
$var wire 1 4 A $end
$var wire 1 P VGND $end
$var wire 1 Q VNB $end
$var wire 1 R VPB $end
$var wire 1 S VPWR $end
$var wire 1 5 Y $end
$var wire 1 T not0_out_Y $end
$upscope $end
$scope module x5 $end
$var wire 1 2 A0 $end
$var wire 1 1 A1 $end
$var wire 1 5 S $end
$var wire 1 U VGND $end
$var wire 1 V VNB $end
$var wire 1 W VPB $end
$var wire 1 X VPWR $end
$var wire 1 6 X $end
$var wire 1 Y mux_2to10_out_X $end
$upscope $end
$upscope $end
$upscope $end
$enddefinitions $end
#0
$dumpvars
1Y
1X
1W
0V
0U
1T
1S
1R
0Q
0P
0O
1N
1M
0L
0K
1J
1I
1H
0G
0F
0E
1D
1C
0B
0A
1@
1?
1>
0=
0<
0;
1:
19
08
07
16
15
04
03
12
11
z0
z/
0.
0-
0,
0+
bx *
bx )
x(
b0 '
b0 &
x%
bx $
b0 #
b11 "
0!
$end
#1000
1!
1O
13
1E
1+
b1 #
b1 '
0%
b100 $
b11111111111111111111111111111111 *
0(
b0 )
#2000
b10 "
06
0Y
01
0J
1,
0+
b10 #
b10 '
1%
b11 $
1(
b11111111111111111111111111111111 *
b1 )
#3000
1+
b11 #
b11 '
b10 $
b11111111111111111111111111111111 *
1(
b10 )
#4000
05
b1 "
16
0T
1Y
14
11
03
1;
1J
0E
1-
0,
0+
b100 #
b100 '
b11111111111111111111111111111111 *
1(
b11 )
#5000
13
1E
1+
b101 #
b101 '
b1 $
b11111111111111111111111111111111 *
1(
b100 )
#6000
01
0J
1,
0+
b110 #
b110 '
b11111111111111111111111111111111 *
1(
b101 )
#7000
1+
b111 #
b111 '
b11111111111111111111111111111111 *
1(
b110 )
#8000
b0 "
06
0Y
02
11
03
0@
1J
0E
1.
0-
0,
0+
b1000 #
b1000 '
b11111111111111111111111111111111 *
1(
b111 )
#9000
13
1E
1+
b1001 #
b1001 '
b0 $
b11111111111111111111111111111111 *
1(
b1000 )
#10000
01
0J
1,
0+
b1010 #
b1010 '
b11111111111111111111111111111111 *
1(
b1001 )
#11000
1+
b1011 #
b1011 '
b11111111111111111111111111111111 *
1(
b1010 )
#12000
11
03
1J
0E
1-
0,
0+
b1100 #
b1100 '
b11111111111111111111111111111111 *
1(
b1011 )
#13000
13
1E
1+
b1101 #
b1101 '
b11111111111111111111111111111111 *
1(
b1100 )
#14000
01
0J
1,
0+
b1110 #
b1110 '
b11111111111111111111111111111111 *
1(
b1101 )
#15000
1+
b1111 #
b1111 '
b11111111111111111111111111111111 *
1(
b1110 )
#16000
b10000 '
b11111111111111111111111111111111 *
1(
b1111 )
