iverilog/zlc8.vcd
$date
	Thu Jun 18 20:10:21 2026
$end
$version
	Icarus Verilog
$end
$timescale
	1ps
$end
$scope module zlc8_tb $end
$var wire 1 ! V $end
$var wire 3 " P [2:0] $end
$var reg 8 # A [7:0] $end
$var reg 4 $ expected_lz [3:0] $end
$var reg 1 % expected_v $end
$var integer 32 & errors [31:0] $end
$var integer 32 ' i [31:0] $end
$scope function lzc8 $end
$var reg 1 ( found $end
$var reg 8 ) value [7:0] $end
$var integer 32 * j [31:0] $end
$upscope $end
$scope module x1 $end
$var wire 1 + A0 $end
$var wire 1 , A1 $end
$var wire 1 - A2 $end
$var wire 1 . A3 $end
$var wire 1 / A4 $end
$var wire 1 0 A5 $end
$var wire 1 1 A6 $end
$var wire 1 2 A7 $end
$var wire 1 3 GND $end
$var wire 1 4 VDD $end
$var wire 1 5 net6 $end
$var wire 1 6 net5 $end
$var wire 1 7 net4 $end
$var wire 1 8 net3 $end
$var wire 1 9 net2 $end
$var wire 1 : net1 $end
$var wire 1 ! V $end
$var wire 1 ; P2 $end
$var wire 1 < P1 $end
$var wire 1 = P0 $end
$scope module x1 $end
$var wire 1 / A0 $end
$var wire 1 0 A1 $end
$var wire 1 1 A2 $end
$var wire 1 2 A3 $end
$var wire 1 3 GND $end
$var wire 1 4 VDD $end
$var wire 1 > net4 $end
$var wire 1 ? net3 $end
$var wire 1 @ net2 $end
$var wire 1 A net1 $end
$var wire 1 : V $end
$var wire 1 9 P1 $end
$var wire 1 6 P0 $end
$scope module x1 $end
$var wire 1 3 GND $end
$var wire 1 2 HI $end
$var wire 1 1 LO $end
$var wire 1 4 VDD $end
$var wire 1 A V $end
$var wire 1 ? P $end
$scope module x1 $end
$var wire 1 2 A $end
$var wire 1 1 B $end
$var wire 1 B VGND $end
$var wire 1 C VNB $end
$var wire 1 D VPB $end
$var wire 1 E VPWR $end
$var wire 1 A X $end
$var wire 1 F or0_out_X $end
$upscope $end
$scope module x2 $end
$var wire 1 2 A $end
$var wire 1 G VGND $end
$var wire 1 H VNB $end
$var wire 1 I VPB $end
$var wire 1 J VPWR $end
$var wire 1 ? Y $end
$var wire 1 K not0_out_Y $end
$upscope $end
$upscope $end
$scope module x2 $end
$var wire 1 3 GND $end
$var wire 1 0 HI $end
$var wire 1 / LO $end
$var wire 1 4 VDD $end
$var wire 1 @ V $end
$var wire 1 > P $end
$scope module x1 $end
$var wire 1 0 A $end
$var wire 1 / B $end
$var wire 1 L VGND $end
$var wire 1 M VNB $end
$var wire 1 N VPB $end
$var wire 1 O VPWR $end
$var wire 1 @ X $end
$var wire 1 P or0_out_X $end
$upscope $end
$scope module x2 $end
$var wire 1 0 A $end
$var wire 1 Q VGND $end
$var wire 1 R VNB $end
$var wire 1 S VPB $end
$var wire 1 T VPWR $end
$var wire 1 > Y $end
$var wire 1 U not0_out_Y $end
$upscope $end
$upscope $end
$scope module x3 $end
$var wire 1 A A $end
$var wire 1 @ B $end
$var wire 1 V VGND $end
$var wire 1 W VNB $end
$var wire 1 X VPB $end
$var wire 1 Y VPWR $end
$var wire 1 : X $end
$var wire 1 Z or0_out_X $end
$upscope $end
$scope module x4 $end
$var wire 1 A A $end
$var wire 1 [ VGND $end
$var wire 1 \ VNB $end
$var wire 1 ] VPB $end
$var wire 1 ^ VPWR $end
$var wire 1 9 Y $end
$var wire 1 _ not0_out_Y $end
$upscope $end
$scope module x5 $end
$var wire 1 ? A0 $end
$var wire 1 > A1 $end
$var wire 1 9 S $end
$var wire 1 ` VGND $end
$var wire 1 a VNB $end
$var wire 1 b VPB $end
$var wire 1 c VPWR $end
$var wire 1 6 X $end
$var wire 1 d mux_2to10_out_X $end
$upscope $end
$upscope $end
$scope module x2 $end
$var wire 1 + A0 $end
$var wire 1 , A1 $end
$var wire 1 - A2 $end
$var wire 1 . A3 $end
$var wire 1 3 GND $end
$var wire 1 4 VDD $end
$var wire 1 e net4 $end
$var wire 1 f net3 $end
$var wire 1 g net2 $end
$var wire 1 h net1 $end
$var wire 1 8 V $end
$var wire 1 7 P1 $end
$var wire 1 5 P0 $end
$scope module x1 $end
$var wire 1 3 GND $end
$var wire 1 . HI $end
$var wire 1 - LO $end
$var wire 1 4 VDD $end
$var wire 1 h V $end
$var wire 1 f P $end
$scope module x1 $end
$var wire 1 . A $end
$var wire 1 - B $end
$var wire 1 i VGND $end
$var wire 1 j VNB $end
$var wire 1 k VPB $end
$var wire 1 l VPWR $end
$var wire 1 h X $end
$var wire 1 m or0_out_X $end
$upscope $end
$scope module x2 $end
$var wire 1 . A $end
$var wire 1 n VGND $end
$var wire 1 o VNB $end
$var wire 1 p VPB $end
$var wire 1 q VPWR $end
$var wire 1 f Y $end
$var wire 1 r not0_out_Y $end
$upscope $end
$upscope $end
$scope module x2 $end
$var wire 1 3 GND $end
$var wire 1 , HI $end
$var wire 1 + LO $end
$var wire 1 4 VDD $end
$var wire 1 g V $end
$var wire 1 e P $end
$scope module x1 $end
$var wire 1 , A $end
$var wire 1 + B $end
$var wire 1 s VGND $end
$var wire 1 t VNB $end
$var wire 1 u VPB $end
$var wire 1 v VPWR $end
$var wire 1 g X $end
$var wire 1 w or0_out_X $end
$upscope $end
$scope module x2 $end
$var wire 1 , A $end
$var wire 1 x VGND $end
$var wire 1 y VNB $end
$var wire 1 z VPB $end
$var wire 1 { VPWR $end
$var wire 1 e Y $end
$var wire 1 | not0_out_Y $end
$upscope $end
$upscope $end
$scope module x3 $end
$var wire 1 h A $end
$var wire 1 g B $end
$var wire 1 } VGND $end
$var wire 1 ~ VNB $end
$var wire 1 !" VPB $end
$var wire 1 "" VPWR $end
$var wire 1 8 X $end
$var wire 1 #" or0_out_X $end
$upscope $end
$scope module x4 $end
$var wire 1 h A $end
$var wire 1 $" VGND $end
$var wire 1 %" VNB $end
$var wire 1 &" VPB $end
$var wire 1 '" VPWR $end
$var wire 1 7 Y $end
$var wire 1 (" not0_out_Y $end
$upscope $end
$scope module x5 $end
$var wire 1 f A0 $end
$var wire 1 e A1 $end
$var wire 1 7 S $end
$var wire 1 )" VGND $end
$var wire 1 *" VNB $end
$var wire 1 +" VPB $end
$var wire 1 ," VPWR $end
$var wire 1 5 X $end
$var wire 1 -" mux_2to10_out_X $end
$upscope $end
$upscope $end
$scope module x3 $end
$var wire 1 : A $end
$var wire 1 8 B $end
$var wire 1 ." VGND $end
$var wire 1 /" VNB $end
$var wire 1 0" VPB $end
$var wire 1 1" VPWR $end
$var wire 1 ! X $end
$var wire 1 2" or0_out_X $end
$upscope $end
$scope module x4 $end
$var wire 1 : A $end
$var wire 1 3" VGND $end
$var wire 1 4" VNB $end
$var wire 1 5" VPB $end
$var wire 1 6" VPWR $end
$var wire 1 ; Y $end
$var wire 1 7" not0_out_Y $end
$upscope $end
$scope module x5 $end
$var wire 1 9 A0 $end
$var wire 1 7 A1 $end
$var wire 1 ; S $end
$var wire 1 8" VGND $end
$var wire 1 9" VNB $end
$var wire 1 :" VPB $end
$var wire 1 ;" VPWR $end
$var wire 1 < X $end
$var wire 1 <" mux_2to10_out_X $end
$upscope $end
$scope module x6 $end
$var wire 1 6 A0 $end
$var wire 1 5 A1 $end
$var wire 1 ; S $end
$var wire 1 =" VGND $end
$var wire 1 >" VNB $end
$var wire 1 ?" VPB $end
$var wire 1 @" VPWR $end
$var wire 1 = X $end
$var wire 1 A" mux_2to10_out_X $end
$upscope $end
$upscope $end
$upscope $end
$enddefinitions $end
#0
$dumpvars
1A"
1@"
1?"
0>"
0="
1<"
1;"
1:"
09"
08"
17"
16"
15"
04"
03"
02"
11"
10"
0/"
0."
1-"
1,"
1+"
0*"
0)"
1("
1'"
1&"
0%"
0$"
0#"
1""
1!"
0~
0}
1|
1{
1z
0y
0x
0w
1v
1u
0t
0s
1r
1q
1p
0o
0n
0m
1l
1k
0j
0i
0h
0g
1f
1e
1d
1c
1b
0a
0`
1_
1^
1]
0\
0[
0Z
1Y
1X
0W
0V
1U
1T
1S
0R
0Q
0P
1O
1N
0M
0L
1K
1J
1I
0H
0G
0F
1E
1D
0C
0B
0A
0@
1?
1>
1=
1<
1;
0:
19
08
17
16
15
z4
z3
02
01
00
0/
0.
0-
0,
0+
bx *
bx )
x(
b0 '
b0 &
x%
bx $
b0 #
b111 "
0!
$end
#1000
1!
12"
18
1#"
1g
1w
1+
b1 #
b1 '
0%
b1000 $
b11111111111111111111111111111111 *
0(
b0 )
#2000
b110 "
0=
0A"
05
0-"
0e
0|
1,
0+
b10 #
b10 '
1%
b111 $
1(
b11111111111111111111111111111111 *
b1 )
#3000
1+
b11 #
b11 '
b110 $
b11111111111111111111111111111111 *
1(
b10 )
#4000
0<
b101 "
1=
0<"
1A"
07
15
0("
1-"
1h
1e
0g
1m
1|
0w
1-
0,
0+
b100 #
b100 '
b11111111111111111111111111111111 *
1(
b11 )
#5000
1g
1w
1+
b101 #
b101 '
b101 $
b11111111111111111111111111111111 *
1(
b100 )
#6000
0e
0|
1,
0+
b110 #
b110 '
b11111111111111111111111111111111 *
1(
b101 )
#7000
1+
b111 #
b111 '
b11111111111111111111111111111111 *
1(
b110 )
#8000
b100 "
0=
0A"
05
0-"
0f
1e
0g
0r
1|
0w
1.
0-
0,
0+
b1000 #
b1000 '
b11111111111111111111111111111111 *
1(
b111 )
#9000
1g
1w
1+
b1001 #
b1001 '
b100 $
b11111111111111111111111111111111 *
1(
b1000 )
#10000
0e
0|
1,
0+
b1010 #
b1010 '
b11111111111111111111111111111111 *
1(
b1001 )
#11000
1+
b1011 #
b1011 '
b11111111111111111111111111111111 *
1(
b1010 )
#12000
1e
0g
1|
0w
1-
0,
0+
b1100 #
b1100 '
b11111111111111111111111111111111 *
1(
b1011 )
#13000
1g
1w
1+
b1101 #
b1101 '
b11111111111111111111111111111111 *
1(
b1100 )
#14000
0e
0|
1,
0+
b1110 #
b1110 '
b11111111111111111111111111111111 *
1(
b1101 )
#15000
1+
b1111 #
b1111 '
b11111111111111111111111111111111 *
1(
b1110 )
#16000
0;
1=
b11 "
1<
07"
1A"
1<"
1:
15
17
08
1Z
1-"
1("
0#"
1@
1f
0h
1e
0g
1P
1r
0m
1|
0w
1/
0.
0-
0,
0+
b10000 #
b10000 '
b11111111111111111111111111111111 *
1(
b1111 )
#17000
18
1#"
1g
1w
1+
b10001 #
b10001 '
b11 $
b11111111111111111111111111111111 *
1(
b10000 )
#18000
05
0-"
0e
0|
1,
0+
b10010 #
b10010 '
b11111111111111111111111111111111 *
1(
b10001 )
#19000
1+
b10011 #
b10011 '
b11111111111111111111111111111111 *
1(
b10010 )
#20000
07
15
0("
1-"
1h
1e
0g
1m
1|
0w
1-
0,
0+
b10100 #
b10100 '
b11111111111111111111111111111111 *
1(
b10011 )
#21000
1g
1w
1+
b10101 #
b10101 '
b11111111111111111111111111111111 *
1(
b10100 )
#22000
0e
0|
1,
0+
b10110 #
b10110 '
b11111111111111111111111111111111 *
1(
b10101 )
#23000
1+
b10111 #
b10111 '
b11111111111111111111111111111111 *
1(
b10110 )
#24000
05
0-"
0f
1e
0g
0r
1|
0w
1.
0-
0,
0+
b11000 #
b11000 '
b11111111111111111111111111111111 *
1(
b10111 )
#25000
1g
1w
1+
b11001 #
b11001 '
b11111111111111111111111111111111 *
1(
b11000 )
#26000
0e
0|
1,
0+
b11010 #
b11010 '
b11111111111111111111111111111111 *
1(
b11001 )
#27000
1+
b11011 #
b11011 '
b11111111111111111111111111111111 *
1(
b11010 )
#28000
1e
0g
1|
0w
1-
0,
0+
b11100 #
b11100 '
b11111111111111111111111111111111 *
1(
b11011 )
#29000
1g
1w
1+
b11101 #
b11101 '
b11111111111111111111111111111111 *
1(
b11100 )
#30000
0e
0|
1,
0+
b11110 #
b11110 '
b11111111111111111111111111111111 *
1(
b11101 )
#31000
1+
b11111 #
b11111 '
b11111111111111111111111111111111 *
1(
b11110 )
#32000
b10 "
0=
0A"
06
15
17
08
0d
1-"
1("
0#"
0>
1f
0h
1e
0g
0U
1r
0m
1|
0w
10
0/
0.
0-
0,
0+
b100000 #
b100000 '
b11111111111111111111111111111111 *
1(
b11111 )
#33000
18
1#"
1g
1w
1+
b100001 #
b100001 '
b10 $
b11111111111111111111111111111111 *
1(
b100000 )
#34000
05
0-"
0e
0|
1,
0+
b100010 #
b100010 '
b11111111111111111111111111111111 *
1(
b100001 )
#35000
1+
b100011 #
b100011 '
b11111111111111111111111111111111 *
1(
b100010 )
#36000
07
15
0("
1-"
1h
1e
0g
1m
1|
0w
1-
0,
0+
b100100 #
b100100 '
b11111111111111111111111111111111 *
1(
b100011 )
#37000
1g
1w
1+
b100101 #
b100101 '
b11111111111111111111111111111111 *
1(
b100100 )
#38000
0e
0|
1,
0+
b100110 #
b100110 '
b11111111111111111111111111111111 *
1(
b100101 )
#39000
1+
b100111 #
b100111 '
b11111111111111111111111111111111 *
1(
b100110 )
#40000
05
0-"
0f
1e
0g
0r
1|
0w
1.
0-
0,
0+
b101000 #
b101000 '
b11111111111111111111111111111111 *
1(
b100111 )
#41000
1g
1w
1+
b101001 #
b101001 '
b11111111111111111111111111111111 *
1(
b101000 )
#42000
0e
0|
1,
0+
b101010 #
b101010 '
b11111111111111111111111111111111 *
1(
b101001 )
#43000
1+
b101011 #
b101011 '
b11111111111111111111111111111111 *
1(
b101010 )
#44000
1e
0g
1|
0w
1-
0,
0+
b101100 #
b101100 '
b11111111111111111111111111111111 *
1(
b101011 )
#45000
1g
1w
1+
b101101 #
b101101 '
b11111111111111111111111111111111 *
1(
b101100 )
#46000
0e
0|
1,
0+
b101110 #
b101110 '
b11111111111111111111111111111111 *
1(
b101101 )
#47000
1+
b101111 #
b101111 '
b11111111111111111111111111111111 *
1(
b101110 )
#48000
15
17
08
1-"
1("
0#"
1f
0h
1e
0g
1r
0m
1|
0w
1/
0.
0-
0,
0+
b110000 #
b110000 '
b11111111111111111111111111111111 *
1(
b101111 )
#49000
18
1#"
1g
1w
1+
b110001 #
b110001 '
b11111111111111111111111111111111 *
1(
b110000 )
#50000
05
0-"
0e
0|
1,
0+
b110010 #
b110010 '
b11111111111111111111111111111111 *
1(
b110001 )
#51000
1+
b110011 #
b110011 '
b11111111111111111111111111111111 *
1(
b110010 )
#52000
07
15
0("
1-"
1h
1e
0g
1m
1|
0w
1-
0,
0+
b110100 #
b110100 '
b11111111111111111111111111111111 *
1(
b110011 )
#53000
1g
1w
1+
b110101 #
b110101 '
b11111111111111111111111111111111 *
1(
b110100 )
#54000
0e
0|
1,
0+
b110110 #
b110110 '
b11111111111111111111111111111111 *
1(
b110101 )
#55000
1+
b110111 #
b110111 '
b11111111111111111111111111111111 *
1(
b110110 )
#56000
05
0-"
0f
1e
0g
0r
1|
0w
1.
0-
0,
0+
b111000 #
b111000 '
b11111111111111111111111111111111 *
1(
b110111 )
#57000
1g
1w
1+
b111001 #
b111001 '
b11111111111111111111111111111111 *
1(
b111000 )
#58000
0e
0|
1,
0+
b111010 #
b111010 '
b11111111111111111111111111111111 *
1(
b111001 )
#59000
1+
b111011 #
b111011 '
b11111111111111111111111111111111 *
1(
b111010 )
#60000
1e
0g
1|
0w
1-
0,
0+
b111100 #
b111100 '
b11111111111111111111111111111111 *
1(
b111011 )
#61000
1g
1w
1+
b111101 #
b111101 '
b11111111111111111111111111111111 *
1(
b111100 )
#62000
0e
0|
1,
0+
b111110 #
b111110 '
b11111111111111111111111111111111 *
1(
b111101 )
#63000
1+
b111111 #
b111111 '
b11111111111111111111111111111111 *
1(
b111110 )
#64000
0<
b1 "
1=
0<"
1A"
09
16
15
17
08
0_
1d
1-"
1("
0#"
1A
1>
0@
1f
0h
1e
0g
1F
1U
0P
1r
0m
1|
0w
11
00
0/
0.
0-
0,
0+
b1000000 #
b1000000 '
b11111111111111111111111111111111 *
1(
b111111 )
#65000
18
1#"
1g
1w
1+
b1000001 #
b1000001 '
b1 $
b11111111111111111111111111111111 *
1(
b1000000 )
#66000
05
0-"
0e
0|
1,
0+
b1000010 #
b1000010 '
b11111111111111111111111111111111 *
1(
b1000001 )
#67000
1+
b1000011 #
b1000011 '
b11111111111111111111111111111111 *
1(
b1000010 )
#68000
07
15
0("
1-"
1h
1e
0g
1m
1|
0w
1-
0,
0+
b1000100 #
b1000100 '
b11111111111111111111111111111111 *
1(
b1000011 )
#69000
1g
1w
1+
b1000101 #
b1000101 '
b11111111111111111111111111111111 *
1(
b1000100 )
#70000
0e
0|
1,
0+
b1000110 #
b1000110 '
b11111111111111111111111111111111 *
1(
b1000101 )
#71000
1+
b1000111 #
b1000111 '
b11111111111111111111111111111111 *
1(
b1000110 )
#72000
05
0-"
0f
1e
0g
0r
1|
0w
1.
0-
0,
0+
b1001000 #
b1001000 '
b11111111111111111111111111111111 *
1(
b1000111 )
#73000
1g
1w
1+
b1001001 #
b1001001 '
b11111111111111111111111111111111 *
1(
b1001000 )
#74000
0e
0|
1,
0+
b1001010 #
b1001010 '
b11111111111111111111111111111111 *
1(
b1001001 )
#75000
1+
b1001011 #
b1001011 '
b11111111111111111111111111111111 *
1(
b1001010 )
#76000
1e
0g
1|
0w
1-
0,
0+
b1001100 #
b1001100 '
b11111111111111111111111111111111 *
1(
b1001011 )
#77000
1g
1w
1+
b1001101 #
b1001101 '
b11111111111111111111111111111111 *
1(
b1001100 )
#78000
0e
0|
1,
0+
b1001110 #
b1001110 '
b11111111111111111111111111111111 *
1(
b1001101 )
#79000
1+
b1001111 #
b1001111 '
b11111111111111111111111111111111 *
1(
b1001110 )
#80000
15
17
08
1-"
1("
0#"
1@
1f
0h
1e
0g
1P
1r
0m
1|
0w
1/
0.
0-
0,
0+
b1010000 #
b1010000 '
b11111111111111111111111111111111 *
1(
b1001111 )
#81000
18
1#"
1g
1w
1+
b1010001 #
b1010001 '
b11111111111111111111111111111111 *
1(
b1010000 )
#82000
05
0-"
0e
0|
1,
0+
b1010010 #
b1010010 '
b11111111111111111111111111111111 *
1(
b1010001 )
#83000
1+
b1010011 #
b1010011 '
b11111111111111111111111111111111 *
1(
b1010010 )
#84000
07
15
0("
1-"
1h
1e
0g
1m
1|
0w
1-
0,
0+
b1010100 #
b1010100 '
b11111111111111111111111111111111 *
1(
b1010011 )
#85000
1g
1w
1+
b1010101 #
b1010101 '
b11111111111111111111111111111111 *
1(
b1010100 )
#86000
0e
0|
1,
0+
b1010110 #
b1010110 '
b11111111111111111111111111111111 *
1(
b1010101 )
#87000
1+
b1010111 #
b1010111 '
b11111111111111111111111111111111 *
1(
b1010110 )
#88000
05
0-"
0f
1e
0g
0r
1|
0w
1.
0-
0,
0+
b1011000 #
b1011000 '
b11111111111111111111111111111111 *
1(
b1010111 )
#89000
1g
1w
1+
b1011001 #
b1011001 '
b11111111111111111111111111111111 *
1(
b1011000 )
#90000
0e
0|
1,
0+
b1011010 #
b1011010 '
b11111111111111111111111111111111 *
1(
b1011001 )
#91000
1+
b1011011 #
b1011011 '
b11111111111111111111111111111111 *
1(
b1011010 )
#92000
1e
0g
1|
0w
1-
0,
0+
b1011100 #
b1011100 '
b11111111111111111111111111111111 *
1(
b1011011 )
#93000
1g
1w
1+
b1011101 #
b1011101 '
b11111111111111111111111111111111 *
1(
b1011100 )
#94000
0e
0|
1,
0+
b1011110 #
b1011110 '
b11111111111111111111111111111111 *
1(
b1011101 )
#95000
1+
b1011111 #
b1011111 '
b11111111111111111111111111111111 *
1(
b1011110 )
#96000
15
17
08
1-"
1("
0#"
0>
1f
0h
1e
0g
0U
1r
0m
1|
0w
10
0/
0.
0-
0,
0+
b1100000 #
b1100000 '
b11111111111111111111111111111111 *
1(
b1011111 )
#97000
18
1#"
1g
1w
1+
b1100001 #
b1100001 '
b11111111111111111111111111111111 *
1(
b1100000 )
#98000
05
0-"
0e
0|
1,
0+
b1100010 #
b1100010 '
b11111111111111111111111111111111 *
1(
b1100001 )
#99000
1+
b1100011 #
b1100011 '
b11111111111111111111111111111111 *
1(
b1100010 )
#100000
07
15
0("
1-"
1h
1e
0g
1m
1|
0w
1-
0,
0+
b1100100 #
b1100100 '
b11111111111111111111111111111111 *
1(
b1100011 )
#101000
1g
1w
1+
b1100101 #
b1100101 '
b11111111111111111111111111111111 *
1(
b1100100 )
#102000
0e
0|
1,
0+
b1100110 #
b1100110 '
b11111111111111111111111111111111 *
1(
b1100101 )
#103000
1+
b1100111 #
b1100111 '
b11111111111111111111111111111111 *
1(
b1100110 )
#104000
05
0-"
0f
1e
0g
0r
1|
0w
1.
0-
0,
0+
b1101000 #
b1101000 '
b11111111111111111111111111111111 *
1(
b1100111 )
#105000
1g
1w
1+
b1101001 #
b1101001 '
b11111111111111111111111111111111 *
1(
b1101000 )
#106000
0e
0|
1,
0+
b1101010 #
b1101010 '
b11111111111111111111111111111111 *
1(
b1101001 )
#107000
1+
b1101011 #
b1101011 '
b11111111111111111111111111111111 *
1(
b1101010 )
#108000
1e
0g
1|
0w
1-
0,
0+
b1101100 #
b1101100 '
b11111111111111111111111111111111 *
1(
b1101011 )
#109000
1g
1w
1+
b1101101 #
b1101101 '
b11111111111111111111111111111111 *
1(
b1101100 )
#110000
0e
0|
1,
0+
b1101110 #
b1101110 '
b11111111111111111111111111111111 *
1(
b1101101 )
#111000
1+
b1101111 #
b1101111 '
b11111111111111111111111111111111 *
1(
b1101110 )
#112000
15
17
08
1-"
1("
0#"
1f
0h
1e
0g
1r
0m
1|
0w
1/
0.
0-
0,
0+
b1110000 #
b1110000 '
b11111111111111111111111111111111 *
1(
b1101111 )
#113000
18
1#"
1g
1w
1+
b1110001 #
b1110001 '
b11111111111111111111111111111111 *
1(
b1110000 )
#114000
05
0-"
0e
0|
1,
0+
b1110010 #
b1110010 '
b11111111111111111111111111111111 *
1(
b1110001 )
#115000
1+
b1110011 #
b1110011 '
b11111111111111111111111111111111 *
1(
b1110010 )
#116000
07
15
0("
1-"
1h
1e
0g
1m
1|
0w
1-
0,
0+
b1110100 #
b1110100 '
b11111111111111111111111111111111 *
1(
b1110011 )
#117000
1g
1w
1+
b1110101 #
b1110101 '
b11111111111111111111111111111111 *
1(
b1110100 )
#118000
0e
0|
1,
0+
b1110110 #
b1110110 '
b11111111111111111111111111111111 *
1(
b1110101 )
#119000
1+
b1110111 #
b1110111 '
b11111111111111111111111111111111 *
1(
b1110110 )
#120000
05
0-"
0f
1e
0g
0r
1|
0w
1.
0-
0,
0+
b1111000 #
b1111000 '
b11111111111111111111111111111111 *
1(
b1110111 )
#121000
1g
1w
1+
b1111001 #
b1111001 '
b11111111111111111111111111111111 *
1(
b1111000 )
#122000
0e
0|
1,
0+
b1111010 #
b1111010 '
b11111111111111111111111111111111 *
1(
b1111001 )
#123000
1+
b1111011 #
b1111011 '
b11111111111111111111111111111111 *
1(
b1111010 )
#124000
1e
0g
1|
0w
1-
0,
0+
b1111100 #
b1111100 '
b11111111111111111111111111111111 *
1(
b1111011 )
#125000
1g
1w
1+
b1111101 #
b1111101 '
b11111111111111111111111111111111 *
1(
b1111100 )
#126000
0e
0|
1,
0+
b1111110 #
b1111110 '
b11111111111111111111111111111111 *
1(
b1111101 )
#127000
1+
b1111111 #
b1111111 '
b11111111111111111111111111111111 *
1(
b1111110 )
#128000
b0 "
0=
0A"
06
15
17
08
0d
1-"
1("
0#"
0?
1>
0@
1f
0h
1e
0g
0K
1U
0P
1r
0m
1|
0w
12
01
00
0/
0.
0-
0,
0+
b10000000 #
b10000000 '
b11111111111111111111111111111111 *
1(
b1111111 )
#129000
18
1#"
1g
1w
1+
b10000001 #
b10000001 '
b0 $
b11111111111111111111111111111111 *
1(
b10000000 )
#130000
05
0-"
0e
0|
1,
0+
b10000010 #
b10000010 '
b11111111111111111111111111111111 *
1(
b10000001 )
#131000
1+
b10000011 #
b10000011 '
b11111111111111111111111111111111 *
1(
b10000010 )
#132000
07
15
0("
1-"
1h
1e
0g
1m
1|
0w
1-
0,
0+
b10000100 #
b10000100 '
b11111111111111111111111111111111 *
1(
b10000011 )
#133000
1g
1w
1+
b10000101 #
b10000101 '
b11111111111111111111111111111111 *
1(
b10000100 )
#134000
0e
0|
1,
0+
b10000110 #
b10000110 '
b11111111111111111111111111111111 *
1(
b10000101 )
#135000
1+
b10000111 #
b10000111 '
b11111111111111111111111111111111 *
1(
b10000110 )
#136000
05
0-"
0f
1e
0g
0r
1|
0w
1.
0-
0,
0+
b10001000 #
b10001000 '
b11111111111111111111111111111111 *
1(
b10000111 )
#137000
1g
1w
1+
b10001001 #
b10001001 '
b11111111111111111111111111111111 *
1(
b10001000 )
#138000
0e
0|
1,
0+
b10001010 #
b10001010 '
b11111111111111111111111111111111 *
1(
b10001001 )
#139000
1+
b10001011 #
b10001011 '
b11111111111111111111111111111111 *
1(
b10001010 )
#140000
1e
0g
1|
0w
1-
0,
0+
b10001100 #
b10001100 '
b11111111111111111111111111111111 *
1(
b10001011 )
#141000
1g
1w
1+
b10001101 #
b10001101 '
b11111111111111111111111111111111 *
1(
b10001100 )
#142000
0e
0|
1,
0+
b10001110 #
b10001110 '
b11111111111111111111111111111111 *
1(
b10001101 )
#143000
1+
b10001111 #
b10001111 '
b11111111111111111111111111111111 *
1(
b10001110 )
#144000
15
17
08
1-"
1("
0#"
1@
1f
0h
1e
0g
1P
1r
0m
1|
0w
1/
0.
0-
0,
0+
b10010000 #
b10010000 '
b11111111111111111111111111111111 *
1(
b10001111 )
#145000
18
1#"
1g
1w
1+
b10010001 #
b10010001 '
b11111111111111111111111111111111 *
1(
b10010000 )
#146000
05
0-"
0e
0|
1,
0+
b10010010 #
b10010010 '
b11111111111111111111111111111111 *
1(
b10010001 )
#147000
1+
b10010011 #
b10010011 '
b11111111111111111111111111111111 *
1(
b10010010 )
#148000
07
15
0("
1-"
1h
1e
0g
1m
1|
0w
1-
0,
0+
b10010100 #
b10010100 '
b11111111111111111111111111111111 *
1(
b10010011 )
#149000
1g
1w
1+
b10010101 #
b10010101 '
b11111111111111111111111111111111 *
1(
b10010100 )
#150000
0e
0|
1,
0+
b10010110 #
b10010110 '
b11111111111111111111111111111111 *
1(
b10010101 )
#151000
1+
b10010111 #
b10010111 '
b11111111111111111111111111111111 *
1(
b10010110 )
#152000
05
0-"
0f
1e
0g
0r
1|
0w
1.
0-
0,
0+
b10011000 #
b10011000 '
b11111111111111111111111111111111 *
1(
b10010111 )
#153000
1g
1w
1+
b10011001 #
b10011001 '
b11111111111111111111111111111111 *
1(
b10011000 )
#154000
0e
0|
1,
0+
b10011010 #
b10011010 '
b11111111111111111111111111111111 *
1(
b10011001 )
#155000
1+
b10011011 #
b10011011 '
b11111111111111111111111111111111 *
1(
b10011010 )
#156000
1e
0g
1|
0w
1-
0,
0+
b10011100 #
b10011100 '
b11111111111111111111111111111111 *
1(
b10011011 )
#157000
1g
1w
1+
b10011101 #
b10011101 '
b11111111111111111111111111111111 *
1(
b10011100 )
#158000
0e
0|
1,
0+
b10011110 #
b10011110 '
b11111111111111111111111111111111 *
1(
b10011101 )
#159000
1+
b10011111 #
b10011111 '
b11111111111111111111111111111111 *
1(
b10011110 )
#160000
15
17
08
1-"
1("
0#"
0>
1f
0h
1e
0g
0U
1r
0m
1|
0w
10
0/
0.
0-
0,
0+
b10100000 #
b10100000 '
b11111111111111111111111111111111 *
1(
b10011111 )
#161000
18
1#"
1g
1w
1+
b10100001 #
b10100001 '
b11111111111111111111111111111111 *
1(
b10100000 )
#162000
05
0-"
0e
0|
1,
0+
b10100010 #
b10100010 '
b11111111111111111111111111111111 *
1(
b10100001 )
#163000
1+
b10100011 #
b10100011 '
b11111111111111111111111111111111 *
1(
b10100010 )
#164000
07
15
0("
1-"
1h
1e
0g
1m
1|
0w
1-
0,
0+
b10100100 #
b10100100 '
b11111111111111111111111111111111 *
1(
b10100011 )
#165000
1g
1w
1+
b10100101 #
b10100101 '
b11111111111111111111111111111111 *
1(
b10100100 )
#166000
0e
0|
1,
0+
b10100110 #
b10100110 '
b11111111111111111111111111111111 *
1(
b10100101 )
#167000
1+
b10100111 #
b10100111 '
b11111111111111111111111111111111 *
1(
b10100110 )
#168000
05
0-"
0f
1e
0g
0r
1|
0w
1.
0-
0,
0+
b10101000 #
b10101000 '
b11111111111111111111111111111111 *
1(
b10100111 )
#169000
1g
1w
1+
b10101001 #
b10101001 '
b11111111111111111111111111111111 *
1(
b10101000 )
#170000
0e
0|
1,
0+
b10101010 #
b10101010 '
b11111111111111111111111111111111 *
1(
b10101001 )
#171000
1+
b10101011 #
b10101011 '
b11111111111111111111111111111111 *
1(
b10101010 )
#172000
1e
0g
1|
0w
1-
0,
0+
b10101100 #
b10101100 '
b11111111111111111111111111111111 *
1(
b10101011 )
#173000
1g
1w
1+
b10101101 #
b10101101 '
b11111111111111111111111111111111 *
1(
b10101100 )
#174000
0e
0|
1,
0+
b10101110 #
b10101110 '
b11111111111111111111111111111111 *
1(
b10101101 )
#175000
1+
b10101111 #
b10101111 '
b11111111111111111111111111111111 *
1(
b10101110 )
#176000
15
17
08
1-"
1("
0#"
1f
0h
1e
0g
1r
0m
1|
0w
1/
0.
0-
0,
0+
b10110000 #
b10110000 '
b11111111111111111111111111111111 *
1(
b10101111 )
#177000
18
1#"
1g
1w
1+
b10110001 #
b10110001 '
b11111111111111111111111111111111 *
1(
b10110000 )
#178000
05
0-"
0e
0|
1,
0+
b10110010 #
b10110010 '
b11111111111111111111111111111111 *
1(
b10110001 )
#179000
1+
b10110011 #
b10110011 '
b11111111111111111111111111111111 *
1(
b10110010 )
#180000
07
15
0("
1-"
1h
1e
0g
1m
1|
0w
1-
0,
0+
b10110100 #
b10110100 '
b11111111111111111111111111111111 *
1(
b10110011 )
#181000
1g
1w
1+
b10110101 #
b10110101 '
b11111111111111111111111111111111 *
1(
b10110100 )
